{
    "social_migration": {
        "spritePrefix": "social_migration",
        "title": "Easy Social Feeds with the Migrate API",
        "subtitle": "\"Easy Social Feeds with the Migrate API\": Presentation given at DrupalCampNJ on Feb. 3, 2018",
        "tags": [
            "drupal",
            "social media"
        ],
        "description": "Because so many of our clients asked, I created a Drupal 8 module to automate the process of retrieving social media posts from Facebook, Instagram, and Twitter. Once we had used the module on a number of client sites successfully, I gave a presentation at the DrupalCampNJ meetup on Feb. 3, 2018, describing the Drupal 8 Migrate API, how it could be used to import structured data of nearly any type into Drupal, and how the module hooked into the Migrate API to do its work.",
        "attachments": {
            "Slide deck": "https://docs.google.com/presentation/d/1kmmC_xWAfsDG_EgOvhWFfHzr2GJ6OxilF0RjGBFniXs/edit?usp=sharing",
            "Audio of the presentation": "https://www.youtube.com/watch?v=1Zkc3Ql-mU0"
        },
        "links": {
            "social_migration module": "https://www.drupal.org/project/social_migration",
            "Drupal Migrate API": "https://www.drupal.org/docs/8/api/migrate-api",
            "DrupalCampNJ": "https://www.drupalcampnj.org/"
        }
    },
    "vagrant-lamp": {
        "spritePrefix": "vagrant-lamp",
        "title": "Local Dev like a Pro",
        "subtitle": "\"Local Dev like a Pro\": presentation given to Eastern Standard dev team on 2016-12-02",
        "tags": [
            "devops",
            "vagrant",
            "puppet"
        ],
        "description": "In this presentation, I summarized how a single Vagrant instance, provisioned with Puppet, could increase efficiency and minimize unexpected downtime when developing a web application from scratch. I also explained how this kind of a setup could increase scalability as the team grows.",
        "attachments": {
            "Google Slide deck": "http://bit.ly/LocalDevLikeAPro"
        },
        "links": {
            "Vagrant": "https://www.vagrantup.com",
            "VirtualBox": "https://www.virtualbox.org/wiki/Downloads",
            "Gitlab Vagrant/Lamp repo": "https://gitlab.com/tmountjr/vagrant-lamp"
        }
    },
    "larymer": {
        "spritePrefix": "larymer",
        "title": "Larymer: Laravel + Polymer",
        "subtitle": "\"Larymer: Laravel + Polymer\": Proof-of-Concept for IntegriChain, Inc.",
        "tags": [
            "polymer",
            "laravel"
        ],
        "description": "I created this proof of concept for my employer at the time. We were working on an internal web project built in Laravel, hence the framework. We were using custom controls and data displays in several different views, and while we could have simply used Blade templates for these, I went out on a limb and created a proof of concept that would have allowed us to use Polymer web components instead. The draw was that we could encapsulate our Javascript and CSS with the controls rather than creating a shared Javascript library. Ultimately management decided not to go this route, in no small part because I was the only developer with any experience with web components, and we wanted to avoid technical specialization; nevertheless, I hope this repo shows how these two excellent frameworks can be seamlessly integrated.",
        "attachments": {
            "Example repository": "https://gitlab.com/tmountjr/larymer"
        },
        "links": {
            "Laravel": "https://laravel.com/",
            "Polymer": "https://www.polymer-project.org/1.0/"
        }
    }
}